"id","description","chart_template_id:id","name","sequence","amount","parent_id:id","child_depend","type","account_collected_id:id","account_paid_id:id","type_tax_use","base_code_id:id","tax_code_id:id","ref_base_code_id:id","ref_tax_code_id:id","ref_base_sign","ref_tax_sign","price_include","base_sign","tax_sign","auto_invoice_tax_id:id"
"22v","22v","l10n_it_chart_template_light","Iva al 22% (debito)","1","0.22",,"False","percent","AEICV","AEICV","sale","template_impcode_riscossa_22","template_ivacode_riscossa_22","template_impcode_riscossa_22","template_ivacode_riscossa_22","-1","-1","False","1","1",
"22a","22a","l10n_it_chart_template_light","Iva al 22% (credito)","2","0.22",,"False","percent","AEICA","AEICA","purchase","template_impcode_pagata_22","template_ivacode_pagata_22","template_impcode_pagata_22","template_ivacode_pagata_22","1","1","False","-1","-1",
"22v INC","22v INC","l10n_it_chart_template_light","Iva al 22% (debito) INCL","3","0.22",,"False","percent","AEICV","AEICV","sale","template_impcode_riscossa_22","template_ivacode_riscossa_22","template_impcode_riscossa_22","template_ivacode_riscossa_22","-1","-1","True","1","1",
"2210","2210","l10n_it_chart_template_light","Iva al 22% detraibile 10%","4","0.22",,"True","percent",,,"purchase","template_impcode_pagata_22det10",,"template_impcode_pagata_22det10",,"1","1","False","-1","-1",
"2210a","2210a","l10n_it_chart_template_light","Iva al 22% detraibile 10% (I)","5","0.9","2210","False","percent",,,"purchase",,"template_ivacode_pagata_22det10ind",,"template_ivacode_pagata_22det10ind","1","1","False","-1","-1",
"2210b","2210b","l10n_it_chart_template_light","Iva al 22% detraibile 10% (D)","6","0","2210","False","balance","AEICA","AEICA","purchase",,"template_ivacode_pagata_22det10",,"template_ivacode_pagata_22det10","1","1","False","-1","-1",
"2215","2215","l10n_it_chart_template_light","Iva al 22% detraibile 15%","7","0.22",,"True","percent",,,"purchase","template_impcode_pagata_22det15",,"template_impcode_pagata_22det15",,"1","1","False","-1","-1",
"2215a","2215a","l10n_it_chart_template_light","Iva al 22% detraibile 15% (I)","8","0.85","2215","False","percent",,,"purchase",,"template_ivacode_pagata_22det15ind",,"template_ivacode_pagata_22det15ind","1","1","False","-1","-1",
"2215b","2215b","l10n_it_chart_template_light","Iva al 22% detraibile 15% (D)","9","0","2215","False","balance","AEICA","AEICA","purchase",,"template_ivacode_pagata_22det15",,"template_ivacode_pagata_22det15","1","1","False","-1","-1",
"2240","2240","l10n_it_chart_template_light","Iva al 22% detraibile 40%","10","0.22",,"True","percent",,,"purchase","template_impcode_pagata_22det40",,"template_impcode_pagata_22det40",,"1","1","False","-1","-1",
"2240a","2240a","l10n_it_chart_template_light","Iva al 22% detraibile 40% (I)","11","0.6","2240","False","percent",,,"purchase",,"template_ivacode_pagata_22det40ind",,"template_ivacode_pagata_22det40ind","1","1","False","-1","-1",
"2240b","2240b","l10n_it_chart_template_light","Iva al 22% detraibile 40% (D)","12","0","2240","False","balance","AEICA","AEICA","purchase",,"template_ivacode_pagata_22det40",,"template_ivacode_pagata_22det40","1","1","False","-1","-1",
"22I5","22I5","l10n_it_chart_template_light","Iva al 22% detraibile al 50%","13","0.22",,"True","percent",,,"purchase","template_impcode_pagata_22det50",,"template_impcode_pagata_22det50",,"1","1","False","-1","-1",
"22I5a","22I5a","l10n_it_chart_template_light","Iva al 22% detraibile al 50% (I)","14","0.5","22I5","False","percent",,,"purchase",,"template_ivacode_pagata_22det50ind",,"template_ivacode_pagata_22det50ind","1","1","False","-1","-1",
"22I5b","22I5b","l10n_it_chart_template_light","Iva al 22% detraibile al 50% (D)","15","0","22I5","False","balance","AEICA","AEICA","purchase",,"template_ivacode_pagata_22det50",,"template_ivacode_pagata_22det50","1","1","False","-1","-1",
"22AO","22AO","l10n_it_chart_template_light","Iva al 22% indetraibile","16","0.22",,"False","percent",,,"purchase","template_impcode_pagata_22ind","template_ivacode_pagata_22ind","template_impcode_pagata_22ind","template_ivacode_pagata_22ind","1","1","False","-1","-1",
"22art38v","22art38v","l10n_it_chart_template_light","Operazione non imponibile – art.38 D.L. 331/93 22% (debito)","17","0.22",,"False","percent","AEICV","AEICV","sale","template_impcode_riscossa_nonimpCEE22_38","template_ivacode_riscossa_nonimpCEE22_38","template_impcode_riscossa_nonimpCEE22_38","template_ivacode_riscossa_nonimpCEE22_38","-1","-1","False","1","1",
"22art38a","22art38a","l10n_it_chart_template_light","Operazione non imponibile – art.38 D.L. 331/93 22% (credito)","18","0.22",,"False","percent","AEICA","AEICA","purchase","template_impcode_pagata_nonimpCEE22_38","template_ivacode_pagata_nonimpCEE22_38","template_impcode_pagata_nonimpCEE22_38","template_ivacode_pagata_nonimpCEE22_38","1","1","False","-1","-1","22art38v"
"22art173v","22art173v","l10n_it_chart_template_light","Autofattura Extra CEE – art. 17 c.3 22% (debito)","19","0.22",,"False","percent","AEICV","AEICV","sale","template_impcode_riscossa_nonimp22_173","template_ivacode_riscossa_nonimp22_173","template_impcode_riscossa_nonimp22_173","template_ivacode_riscossa_nonimp22_173","-1","-1","False","1","1",
"22art173a","22art173a","l10n_it_chart_template_light","Autofattura Extra CEE – art. 17 c.3 22% (credito)","20","0.22",,"False","percent","AEICA","AEICA","purchase","template_impcode_pagata_nonimp22_173","template_ivacode_pagata_nonimp22_173","template_impcode_pagata_nonimp22_173","template_ivacode_pagata_nonimp22_173","1","1","False","-1","-1","22art173v"
"00747v","00747v","l10n_it_chart_template_light","Reverse cessionario art.74 c.7 DPR 633/72 (debito)","19","0",,"False","percent","AEICV","AEICV","sale","template_impcode_riscossa_747","template_ivacode_riscossa_747","template_impcode_riscossa_747","template_ivacode_riscossa_747","-1","-1","False","1","1",
"00748v","00748v","l10n_it_chart_template_light","Reverse cessionario art.74 c.8 DPR 633/72 (debito)","20","0",,"False","percent","AEICV","AEICV","sale","template_impcode_riscossa_748","template_ivacode_riscossa_748","template_impcode_riscossa_748","template_ivacode_riscossa_748","-1","-1","False","1","1",
"20ra","20ra","l10n_it_chart_template_light","Rit. acconto passiva compensi al 20%","21","-0.20",,"False","percent","PCD2000","PCD2000","purchase",,"template_ra_passiva_20",,"template_ra_passiva_20","-1","-1","False","1","1",
"235ra","235ra","l10n_it_chart_template_light","Rit. acconto passiva agenti al 23% sul 50%","24","-0.115",,"False","percent","PCD5000","PCD5000","purchase",,"template_ra_passiva_235",,"template_ra_passiva_235","-1","-1","False","1","1",
"232ra","232ra","l10n_it_chart_template_light","Rit. acconto passiva agenti al 23% sul 20%","25","-0.046",,"False","percent","PCD5000","PCD5000","purchase",,"template_ra_passiva_232",,"template_ra_passiva_232","-1","-1","False","1","1",
"710ena","710ena","l10n_it_chart_template_light","Rit. ENASARCO passiva agenti al 14,20% sul 50%","26","-0.071",,"False","percent","PCD5000","PCD5000","purchase",,"template_ra_enasarco_710",,"template_ra_enasarco_710","-1","-1","False","1","1",
"1465ena","1465ena","l10n_it_chart_template_light","Rit. ENASARCO passiva agenti al 14,65% sul 50%","27","-0.07325",,"False","percent","PCD5000","PCD5000","purchase",,"template_ra_enasarco_1465",,"template_ra_enasarco_1465","-1","-1","False","1","1",
"20rv","20rv","l10n_it_chart_template_light","Rit. acconto attiva compensi al 20%","28","-0.2",,"False","percent","PCD5000","PCD5000","sale",,"template_rv_attiva_20",,"template_rv_attiva_20","1","1","False","-1","-1",
"235rv","235rv","l10n_it_chart_template_light","Rit. acconto attiva agenti al 23% sul 50%","29","-0.115",,"False","percent","PCD5000","PCD5000","sale",,"template_rv_attiva_235",,"template_rv_attiva_235","1","1","False","-1","-1",
"232rv","232rv","l10n_it_chart_template_light","Rit. acconto attiva agenti al 23% sul 20%","30","-0.046",,"False","percent","PCD5000","PCD5000","sale",,"template_rv_attiva_232",,"template_rv_attiva_232","1","1","False","-1","-1",
"710env","710env","l10n_it_chart_template_light","Rit. ENASARCO attiva agenti al 14,20% sul 50%","31","-0.071",,"False","percent","PCD5000","PCD5000","sale",,"template_rv_enasarco_710",,"template_rv_enasarco_710","1","1","False","-1","-1",
"1465env","1465env","l10n_it_chart_template_light","Rit. ENASARCO attiva agenti al 14,65% sul 50%","32","-0.07325",,"False","percent","PCD5000","PCD5000","sale",,"template_rv_enasarco_1465",,"template_rv_enasarco_1465","1","1","False","-1","-1",
"10v","10v","l10n_it_chart_template_light","Iva al 10% (debito)","22","0.1",,"False","percent","AEICV","AEICV","sale","template_impcode_riscossa_10","template_ivacode_riscossa_10","template_impcode_riscossa_10","template_ivacode_riscossa_10","-1","-1","False","1","1",
"10a","10a","l10n_it_chart_template_light","Iva al 10% (credito)","23","0.1",,"False","percent","AEICA","AEICA","purchase","template_impcode_pagata_10","template_ivacode_pagata_10","template_impcode_pagata_10","template_ivacode_pagata_10","1","1","False","-1","-1",
"10AO","10AO","l10n_it_chart_template_light","Iva al 10% indetraibile","24","0.1",,"False","percent",,,"purchase","template_impcode_pagata_10ind","template_ivacode_pagata_10ind","template_impcode_pagata_10ind","template_ivacode_pagata_10ind","1","1","False","-1","-1",
"12v","12v","l10n_it_chart_template_light","Iva 12% (debito)","25","0.12",,"False","percent","AEICV","AEICV","sale","template_impcode_riscossa_12","template_ivacode_riscossa_12","template_impcode_riscossa_12","template_ivacode_riscossa_12","-1","-1","False","1","1",
"12a","12a","l10n_it_chart_template_light","Iva 12% (credito)","26","0.12",,"False","percent","AEICA","AEICA","purchase","template_impcode_pagata_12","template_ivacode_pagata_12","template_impcode_pagata_12","template_ivacode_pagata_12","1","1","False","-1","-1",
"2v","2v","l10n_it_chart_template_light","Iva 2% (debito)","27","0.02",,"False","percent","AEICV","AEICV","sale","template_impcode_riscossa_2","template_ivacode_riscossa_2","template_impcode_riscossa_2","template_ivacode_riscossa_2","-1","-1","False","1","1",
"2a","2a","l10n_it_chart_template_light","Iva 2% (credito)","28","0.02",,"False","percent","AEICA","AEICA","purchase","template_impcode_pagata_2","template_ivacode_pagata_2","template_impcode_pagata_2","template_ivacode_pagata_2","1","1","False","-1","-1",
"4v","4v","l10n_it_chart_template_light","Iva 4% (debito)","29","0.04",,"False","percent","AEICV","AEICV","sale","template_impcode_riscossa_4","template_ivacode_riscossa_4","template_impcode_riscossa_4","template_ivacode_riscossa_4","-1","-1","False","1","1",
"4a","4a","l10n_it_chart_template_light","Iva 4% (credito)","30","0.04",,"False","percent","AEICA","AEICA","purchase","template_impcode_pagata_4","template_ivacode_pagata_4","template_impcode_pagata_4","template_ivacode_pagata_4","1","1","False","-1","-1",
"4AO","4AO","l10n_it_chart_template_light","Iva al 4% indetraibile","31","0.04",,"False","percent",,,"purchase","template_impcode_pagata_4ind","template_ivacode_pagata_4ind","template_impcode_pagata_4ind","template_ivacode_pagata_4ind","1","1","False","-1","-1",
"10I5","10I5","l10n_it_chart_template_light","Iva al 10% detraibile al 50%","32","0.1",,"True","percent",,,"purchase","template_impcode_pagata_10det50",,"template_impcode_pagata_10det50",,"1","1","False","-1","-1",
"10I5a","10I5a","l10n_it_chart_template_light","Iva al 10% detraibile al 50% (I)","33","0.5","10I5","False","percent",,,"purchase",,"template_ivacode_pagata_10det50ind",,"template_ivacode_pagata_10det50ind","1","1","False","-1","-1",
"10I5b","10I5b","l10n_it_chart_template_light","Iva al 10% detraibile al 50% (D)","34","0","10I5","False","balance","AEICA","AEICA","purchase",,"template_ivacode_pagata_10det50",,"template_ivacode_pagata_10det50","1","1","False","-1","-1",
"4I5","4I5","l10n_it_chart_template_light","Iva al 4% detraibile al 50%","35","0.04",,"True","percent",,,"purchase","template_impcode_pagata_4det50",,"template_impcode_pagata_4det50",,"1","1","False","-1","-1",
"4I5a","4I5a","l10n_it_chart_template_light","Iva al 4% detraibile al 50% (I)","36","0.5","4I5","False","percent",,,"purchase",,"template_ivacode_pagata_4det50ind",,"template_ivacode_pagata_4det50ind","1","1","False","-1","-1",
"4I5b","4I5b","l10n_it_chart_template_light","Iva al 4% detraibile al 50% (D)","37","0","4I5","False","balance","AEICA","AEICA","purchase",,"template_ivacode_pagata_4det50",,"template_ivacode_pagata_4det50","1","1","False","-1","-1",
"10v INC","10v INC","l10n_it_chart_template_light","Iva al 10% (debito) INC","38","0.1",,"False","percent","AEICV","AEICV","sale","template_impcode_riscossa_10","template_ivacode_riscossa_10","template_impcode_riscossa_10","template_ivacode_riscossa_10","-1","-1","True","1","1",
"12v INC","12v INC","l10n_it_chart_template_light","Iva 12% (debito) INC","39","0.12",,"False","percent","AEICV","AEICV","sale","template_impcode_riscossa_12","template_ivacode_riscossa_12","template_impcode_riscossa_12","template_ivacode_riscossa_12","-1","-1","True","1","1",
"2v INC","2v INC","l10n_it_chart_template_light","Iva 2% (debito) INC","40","0.02",,"False","percent","AEICV","AEICV","sale","template_impcode_riscossa_2","template_ivacode_riscossa_2","template_impcode_riscossa_2","template_ivacode_riscossa_2","-1","-1","True","1","1",
"4v INC","4v INC","l10n_it_chart_template_light","Iva 4% (debito) INC","41","0.04",,"False","percent","AEICV","AEICV","sale","template_impcode_riscossa_4","template_ivacode_riscossa_4","template_impcode_riscossa_4","template_ivacode_riscossa_4","-1","-1","True","1","1",
"00v","00v","l10n_it_chart_template_light","Fuori Campo Iva DPR 633/72 (debito)","42","0",,"False","percent","AEICV","AEICV","sale","template_impcode_riscossa_fuori",,"template_impcode_riscossa_fuori",,"-1","-1","False","1","1",
"00a","00a","l10n_it_chart_template_light","Fuori Campo Iva DPR 633/72 (credito)","43","0",,"False","percent","AEICA","AEICA","purchase","template_impcode_pagata_fuori",,"template_impcode_pagata_fuori",,"1","1","False","-1","-1",
"00art15v","00art15v","l10n_it_chart_template_light","Imponibile Escluso Art.15 DPR 633/72 (debito)","44","0",,"False","percent","AEICV","AEICV","sale","template_impcode_riscossa_esclusa_art15",,"template_impcode_riscossa_esclusa_art15",,"-1","-1","False","1","1",
"00art15a","00art15a","l10n_it_chart_template_light","Imponibile Escluso Art.15 DPR 633/72 (credito)","45","0",,"False","percent","AEICA","AEICA","purchase","template_impcode_pagata_esclusa_art15",,"template_impcode_pagata_esclusa_art15",,"1","1","False","-1","-1",
"00art741a","00art741a","l10n_it_chart_template_light","Imponibile Escluso Art.74 c.1 DPR 633/72 (credito)","46","0",,"False","percent","AEICA","AEICA","purchase","template_impcode_pagata_esclusa_art741",,"template_impcode_pagata_esclusa_art741",,"1","1","False","-1","-1",
"00art8v","00art8v","l10n_it_chart_template_light","Non imponibile Art.8 DPR 633/72 (debito)","47","0",,"False","percent","AEICV","AEICV","sale","template_impcode_riscossa_nonimp_8",,"template_impcode_riscossa_nonimp_8",,"-1","-1","False","1","1",
"00art8bv","00art8bv","l10n_it_chart_template_light","Non imponibile Art.8 b DPR 633/72 (debito)","48","0",,"False","percent","AEICV","AEICV","sale","template_impcode_riscossa_nonimp_8b",,"template_impcode_riscossa_nonimp_8b",,"-1","-1","False","1","1",
"00art8cv","00art8cv","l10n_it_chart_template_light","Non imponibile Art.8 c DPR 633/72 (debito)","49","0",,"False","percent","AEICV","AEICV","sale","template_impcode_riscossa_nonimp_8c",,"template_impcode_riscossa_nonimp_8c",,"-1","-1","False","1","1",
"00art72","00art72","l10n_it_chart_template_light","Non imponibile Art.72 DPR 633/72 (debito)","50","0",,"False","percent","AEICV","AEICV","sale","template_impcode_riscossa_nonimp_72",,"template_impcode_riscossa_nonimp_72",,"-1","-1","False","1","1",
"00art41v","00art41v","l10n_it_chart_template_light","Operazione non imponibile – art.41 D.L. 331/93 (debito)","51","0",,"False","percent",,,"sale","template_impcode_riscossa_nonimpCEE_41","template_ivacode_riscossa_nonimpCEE_41","template_impcode_riscossa_nonimpCEE_41","template_ivacode_riscossa_nonimpCEE_41","-1","-1","False","1","1",
"00art10v","00art10v","l10n_it_chart_template_light","Esente Art. 10 DPR 633/72 (debito)","52","0",,"False","percent","AEICV","AEICV","sale","template_impcode_riscossa_esente_10",,"template_impcode_riscossa_esente_10",,"-1","-1","False","1","1",
"00art10a","00art10a","l10n_it_chart_template_light","Esente Art. 10 DPR 633/72 (credito)","53","0",,"False","percent","AEICA","AEICA","purchase","template_impcode_pagata_esente_10",,"template_impcode_pagata_esente_10",,"1","1","False","-1","-1",
"21v","21v","l10n_it_chart_template_light","Iva al 21% (debito)","900","0.21",,"False","percent","AEICV","AEICV","sale","template_impcode_riscossa_21","template_ivacode_riscossa_21","template_impcode_riscossa_21","template_ivacode_riscossa_21","-1","-1","False","1","1",
"21a","21a","l10n_it_chart_template_light","Iva al 21% (credito)","901","0.21",,"False","percent","AEICA","AEICA","purchase","template_impcode_pagata_21","template_ivacode_pagata_21","template_impcode_pagata_21","template_ivacode_pagata_21","1","1","False","-1","-1",
"20v","20v","l10n_it_chart_template_light","Iva al 20% (debito)","902","0.2",,"False","percent","AEICV","AEICV","sale","template_impcode_riscossa_20","template_ivacode_riscossa_20","template_impcode_riscossa_20","template_ivacode_riscossa_20","-1","-1","False","1","1",
"20a","20a","l10n_it_chart_template_light","Iva al 20% (credito)","903","0.2",,"False","percent","AEICA","AEICA","purchase","template_impcode_pagata_20","template_ivacode_pagata_20","template_impcode_pagata_20","template_ivacode_pagata_20","1","1","False","-1","-1",
"2010","2010","l10n_it_chart_template_light","Iva al 20% detraibile 10%","904","0.2",,"True","percent",,,"purchase","template_impcode_pagata_20det10",,"template_impcode_pagata_20det10",,"1","1","False","-1","-1",
"2010a","2010a","l10n_it_chart_template_light","Iva al 20% detraibile 10% (I)","905","0.9","2010","False","percent",,,"purchase",,"template_ivacode_pagata_20det10ind",,"template_ivacode_pagata_20det10ind","1","1","False","-1","-1",
"2010b","2010b","l10n_it_chart_template_light","Iva al 20% detraibile 10% (D)","906","0","2010","False","balance","AEICA","AEICA","purchase",,"template_ivacode_pagata_20det10",,"template_ivacode_pagata_20det10","1","1","False","-1","-1",
"2015","2015","l10n_it_chart_template_light","Iva al 20% detraibile 15%","907","0.2",,"True","percent",,,"purchase","template_impcode_pagata_20det15",,"template_impcode_pagata_20det15",,"1","1","False","-1","-1",
"2015a","2015a","l10n_it_chart_template_light","Iva al 20% detraibile 15% (I)","908","0.85","2015","False","percent",,,"purchase",,"template_ivacode_pagata_20det15ind",,"template_ivacode_pagata_20det15ind","1","1","False","-1","-1",
"2015b","2015b","l10n_it_chart_template_light","Iva al 20% detraibile 15% (D)","909","0","2015","False","balance","AEICA","AEICA","purchase",,"template_ivacode_pagata_20det15",,"template_ivacode_pagata_20det15","1","1","False","-1","-1",
"2040","2040","l10n_it_chart_template_light","Iva al 20% detraibile 40%","910","0.2",,"True","percent",,,"purchase","template_impcode_pagata_20det40",,"template_impcode_pagata_20det40",,"1","1","False","-1","-1",
"2040a","2040a","l10n_it_chart_template_light","Iva al 20% detraibile 40% (I)","911","0.6","2040","False","percent",,,"purchase",,"template_ivacode_pagata_20det40ind",,"template_ivacode_pagata_20det40ind","1","1","False","-1","-1",
"2040b","2040b","l10n_it_chart_template_light","Iva al 20% detraibile 40% (D)","912","0","2040","False","balance","AEICA","AEICA","purchase",,"template_ivacode_pagata_20det40",,"template_ivacode_pagata_20det40","1","1","False","-1","-1",
"20AO","20AO","l10n_it_chart_template_light","Iva al 20% indetraibile","913","0.2",,"False","percent",,,"purchase","template_impcode_pagata_20ind","template_ivacode_pagata_20ind","template_impcode_pagata_20ind","template_ivacode_pagata_20ind","1","1","False","-1","-1",
"20I5","20I5","l10n_it_chart_template_light","Iva al 20% detraibile al 50%","914","0.2",,"True","percent",,,"purchase","template_impcode_pagata_20det50",,"template_impcode_pagata_20det50",,"1","1","False","-1","-1",
"20I5a","20I5a","l10n_it_chart_template_light","Iva al 20% detraibile al 50% (I)","915","0.5","20I5","False","percent",,,"purchase",,"template_ivacode_pagata_20det50ind",,"template_ivacode_pagata_20det50ind","1","1","False","-1","-1",
"20I5b","20I5b","l10n_it_chart_template_light","Iva al 20% detraibile al 50% (D)","916","0","20I5","False","balance","AEICA","AEICA","purchase",,"template_ivacode_pagata_20det50",,"template_ivacode_pagata_20det50","1","1","False","-1","-1",
"21v INC","21v INC","l10n_it_chart_template_light","Iva al 21% (debito) INC","917","0.21",,"False","percent","AEICV","AEICV","sale","template_impcode_riscossa_21","template_ivacode_riscossa_21","template_impcode_riscossa_21","template_ivacode_riscossa_21","-1","-1","True","1","1",
"20v INC","20v INC","l10n_it_chart_template_light","Iva al 20% (debito) INC","918","0.2",,"False","percent","AEICV","AEICV","sale","template_impcode_riscossa_20","template_ivacode_riscossa_20","template_impcode_riscossa_20","template_ivacode_riscossa_20","-1","-1","True","1","1",
"2110","2110","l10n_it_chart_template_light","Iva al 21% detraibile 10%","919","0.21",,"True","percent",,,"purchase","template_impcode_pagata_21det10",,"template_impcode_pagata_21det10",,"1","1","False","-1","-1",
"2110a","2110a","l10n_it_chart_template_light","Iva al 21% detraibile 10% (I)","920","0.9","2110","False","percent",,,"purchase",,"template_ivacode_pagata_21det10ind",,"template_ivacode_pagata_21det10ind","1","1","False","-1","-1",
"2110b","2110b","l10n_it_chart_template_light","Iva al 21% detraibile 10% (D)","921","0","2110","False","balance","AEICA","AEICA","purchase",,"template_ivacode_pagata_21det10",,"template_ivacode_pagata_21det10","1","1","False","-1","-1",
"2115","2115","l10n_it_chart_template_light","Iva al 21% detraibile 15%","922","0.21",,"True","percent",,,"purchase","template_impcode_pagata_21det15",,"template_impcode_pagata_21det15",,"1","1","False","-1","-1",
"2115a","2115a","l10n_it_chart_template_light","Iva al 21% detraibile 15% (I)","923","0.85","2115","False","percent",,,"purchase",,"template_ivacode_pagata_21det15ind",,"template_ivacode_pagata_21det15ind","1","1","False","-1","-1",
"2115b","2115b","l10n_it_chart_template_light","Iva al 21% detraibile 15% (D)","924","0","2115","False","balance","AEICA","AEICA","purchase",,"template_ivacode_pagata_21det15",,"template_ivacode_pagata_21det15","1","1","False","-1","-1",
"2140","2140","l10n_it_chart_template_light","Iva al 21% detraibile 40%","925","0.21",,"True","percent",,,"purchase","template_impcode_pagata_21det40",,"template_impcode_pagata_21det40",,"1","1","False","-1","-1",
"2140a","2140a","l10n_it_chart_template_light","Iva al 21% detraibile 40% (I)","926","0.6","2140","False","percent",,,"purchase",,"template_ivacode_pagata_21det40ind",,"template_ivacode_pagata_21det40ind","1","1","False","-1","-1",
"2140b","2140b","l10n_it_chart_template_light","Iva al 21% detraibile 40% (D)","927","0","2140","False","balance","AEICA","AEICA","purchase",,"template_ivacode_pagata_21det40",,"template_ivacode_pagata_21det40","1","1","False","-1","-1",
"21AO","21AO","l10n_it_chart_template_light","Iva al 21% indetraibile","928","0.21",,"False","percent",,,"purchase","template_impcode_pagata_21ind","template_ivacode_pagata_21ind","template_impcode_pagata_21ind","template_ivacode_pagata_21ind","1","1","False","-1","-1",
"21I5","21I5","l10n_it_chart_template_light","Iva al 21% detraibile al 50%","929","0.21",,"True","percent",,,"purchase","template_impcode_pagata_21det50",,"template_impcode_pagata_21det50",,"1","1","False","-1","-1",
"21I5a","21I5a","l10n_it_chart_template_light","Iva al 21% detraibile al 50% (I)","930","0.5","21I5","False","percent",,,"purchase",,"template_ivacode_pagata_21det50ind",,"template_ivacode_pagata_21det50ind","1","1","False","-1","-1",
"21I5b","21I5b","l10n_it_chart_template_light","Iva al 21% detraibile al 50% (D)","931","0","21I5","False","balance","AEICA","AEICA","purchase",,"template_ivacode_pagata_21det50",,"template_ivacode_pagata_21det50","1","1","False","-1","-1",
"21art38a","21art38a","l10n_it_chart_template_light","Operazione non imponibile – art.38 D.L. 331/93 21% (credito)","932","0.21",,"False","percent","AEICA","AEICA","purchase","template_impcode_pagata_nonimpCEE_38","template_ivacode_pagata_nonimpCEE_38","template_impcode_pagata_nonimpCEE_38","template_ivacode_pagata_nonimpCEE_38","1","1","False","-1","-1",
"21art38v","21art38v","l10n_it_chart_template_light","Operazione non imponibile – art.38 D.L. 331/93 21% (debito)","933","0.21",,"False","percent","AEICV","AEICV","sale","template_impcode_riscossa_nonimpCEE_38","template_ivacode_riscossa_nonimpCEE_38","template_impcode_riscossa_nonimpCEE_38","template_ivacode_riscossa_nonimpCEE_38","-1","-1","False","1","1",
